Lab 5 - Poisson - Questions – advanced-psyc-stats
…
data_pos <- data_pos %>% 
  mutate(sex = recode(sex, `-1` = "Male", `1` = "Female"))

data_pos$sex <- as.factor(data_pos$sex)

data_pos <- data_pos %>% 
    mutate(reliten_recode = factor(reliten, levels = c(1, 2, 3, 4, 5), ordered = TRUE))

Missingness

data_pos %>%
  dplyr::select(reliten, reliten_recode)

# A tibble: 2,044 × 2
   reliten reliten_recode
     <dbl> <ord>         
 1       1 1             
 2       4 4             
 3       1 1             
 4       1 1             
 5       1 1             
 6       4 4             
 7       3 3             
 8       1 1             
 9       1 1             
10       1 1             
# ℹ 2,034 more rows
…
