Lab 4 - Multinomial Regression - Questions – advanced-psyc-stats
…
pol_ident_new
153.843978
6
0.000000

Run the full model and report overall significance of each of the terms.

Each of the terms are p < .001 (very, very close to 0)

Code

model_party %>%
  tidy()

# A tibble: 28 × 6
   y.level  term                     estimate std.error statistic  p.value
   <chr>    <chr>                       <dbl>     <dbl>     <dbl>    <dbl>
 1 sporadic (Intercept)                1.73     0.136      12.7   4.33e-37
 2 sporadic center_age                 0.0457   0.00232    19.7   5.31e-86
 3 sporadic raceHispanic               0.0402   0.128       0.314 7.53e- 1
 4 sporadic raceOther/Mixed           -0.332    0.159      -2.09  3.66e- 2
 5 sporadic raceWhite                 -0.0775   0.108      -0.719 4.72e- 1
 6 sporadic genderMale                -0.0901   0.0722     -1.25  2.12e- 1
 7 sporadic income_cat$40-75k         -0.0738   0.111      -0.662 5.08e- 1
 8 sporadic income_cat$75-125k         0.0125   0.107       0.117 9.07e- 1
 9 sporadic income_catLess than $40k  -0.588    0.114      -5.17  2.37e- 7
10 sporadic educHigh school or less   -0.853    0.0974     -8.76  1.94e-18
# ℹ 18 more rows
…
